hw-03-01-eshaanmathakari
…
A tibble is a data structure in R, part of the tidyverse ecosystem, that is designed to make data manipulation and analysis easier and more consistent. It is an enhanced and modern alternative to the traditional data frame in R.

library(tidyverse)

# Convert the artists dataset into a tibble.
as_tibble(artists)

# A tibble: 3,162 × 14
   artist_name    edition_number  year artist_nationality artist_nationality_o…¹
   <chr>                   <dbl> <dbl> <chr>              <chr>                 
 1 Aaron Douglas               9  1991 American           American              
 2 Aaron Douglas              10  1996 American           American              
 3 Aaron Douglas              11  2001 American           American              
 4 Aaron Douglas              12  2005 American           American              
 5 Aaron Douglas              13  2009 American           American              
 6 Aaron Douglas              14  2013 American           American              
 7 Aaron Douglas              15  2016 American           American              
 8 Aaron Douglas              16  2020 American           American              
 9 Adélaïde Labi…             14  2013 French             French                
10 Adélaïde Labi…             15  2016 French             French                
# ℹ 3,152 more rows
# ℹ abbreviated name: ¹​artist_nationality_other
# ℹ 9 more variables: artist_gender <chr>, artist_race <chr>,
#   artist_ethnicity <chr>, book <chr>, space_ratio_per_page_total <dbl>,
#   artist_unique_id <dbl>, moma_count_to_year <dbl>,
#   whitney_count_to_year <dbl>, artist_race_nwi <chr>
…
Convert type into a set of 0-1 dummy variables using class2ind.

artists_train_dummy <- as_tibble(class2ind(artists_train$book)) |> 
  mutate(across(everything(), as.factor)) |>
  add_column(artist_nationality = artists_train$artist_nationality)
artists_train_dummy

# A tibble: 2,484 × 3
   Gardner Janson artist_nationality
   <fct>   <fct>  <fct>             
 1 1       0      American          
 2 1       0      American          
 3 1       0      American          
 4 1       0      American          
 5 1       0      French            
 6 1       0      French            
 7 1       0      French            
 8 1       0      French            
 9 1       0      French            
10 1       0      French            
# ℹ 2,474 more rows
…
